notebooks/Chapter_8_examples/example_15__traffic_light_states/traffic_light_testbench.vcd
$version Generated by VerilatedVcd $end
$timescale 1ps $end
 $scope module $rootio $end
 $upscope $end
 $scope module traffic_light_testbench $end
  $var wire 1 & clk $end
  $var wire 1 ' reset_n $end
  $var wire 3 # light_outputs [2:0] $end
  $scope module TRAFFIC_LIGHT_DUT $end
   $var wire 1 & clk $end
   $var wire 1 ' reset_n $end
   $var wire 3 # light_outputs [2:0] $end
   $var wire 2 $ current_state [1:0] $end
   $var wire 2 % next_state [1:0] $end
   $var wire 4 ( counter [3:0] $end
  $upscope $end
 $upscope $end
$enddefinitions $end


#0
b100 #
b00 $
b00 %
0&
0'
b0000 (
#5
1&
#10
0&
#15
1&
#20
0&
1'
#25
1&
b0001 (
#30
0&
#35
1&
b0010 (
#40
0&
#45
1&
b0011 (
#50
0&
#55
1&
b0100 (
#60
0&
#65
1&
b0101 (
#70
0&
#75
1&
b0110 (
#80
0&
#85
1&
b0111 (
#90
0&
#95
1&
b1000 (
#100
0&
#105
1&
b1001 (
#110
0&
#115
1&
b1010 (
#120
0&
#125
1&
b1011 (
#130
0&
#135
1&
b1100 (
#140
0&
#145
1&
b1101 (
#150
0&
#155
1&
b1110 (
#160
0&
#165
b10 %
1&
b1111 (
#170
0&
#175
b001 #
b10 $
1&
b0000 (
#180
0&
#185
1&
b0001 (
#190
0&
#195
1&
b0010 (
#200
0&
#205
1&
b0011 (
#210
0&
#215
1&
b0100 (
#220
0&
#225
1&
b0101 (
#230
0&
#235
1&
b0110 (
#240
0&
#245
1&
b0111 (
#250
0&
#255
1&
b1000 (
#260
0&
#265
1&
b1001 (
#270
0&
#275
1&
b1010 (
#280
0&
#285
1&
b1011 (
#290
0&
#295
1&
b1100 (
#300
0&
#305
1&
b1101 (
#310
0&
#315
1&
b1110 (
#320
0&
#325
b01 %
1&
b1111 (
#330
0&
#335
b010 #
b01 $
1&
b0000 (
#340
0&
#345
1&
b0001 (
#350
0&
#355
1&
b0010 (
#360
0&
#365
1&
b0011 (
#370
0&
#375
1&
b0100 (
#380
0&
#385
1&
b0101 (
#390
0&
#395
1&
b0110 (
#400
0&
#405
b00 %
1&
b0111 (
#410
0&
#415
b100 #
b00 $
1&
b1000 (
#420
0&
#425
1&
b1001 (
#430
0&
#435
1&
b1010 (
#440
0&
#445
1&
b1011 (
#450
0&
#455
1&
b1100 (
#460
0&
#465
1&
b1101 (
#470
0&
#475
1&
b1110 (
#480
0&
#485
b10 %
1&
b1111 (
#490
0&
#495
b001 #
b10 $
1&
b0000 (
#500
0&
#505
1&
b0001 (
#510
0&
#515
1&
b0010 (
#520
0&
#525
1&
b0011 (
#530
0&
#535
1&
b0100 (
#540
0&
#545
1&
b0101 (
#550
0&
#555
1&
b0110 (
#560
0&
#565
1&
b0111 (
#570
0&
#575
1&
b1000 (
#580
0&
#585
1&
b1001 (
#590
0&
#595
1&
b1010 (
#600
0&
#605
1&
b1011 (
#610
0&
#615
1&
b1100 (
#620
0&
#625
1&
b1101 (
#630
0&
#635
1&
b1110 (
#640
0&
#645
b01 %
1&
b1111 (
#650
0&
#655
b010 #
b01 $
1&
b0000 (
#660
0&
#665
1&
b0001 (
#670
0&
#675
1&
b0010 (
#680
0&
#685
1&
b0011 (
#690
0&
#695
1&
b0100 (
#700
0&
#705
1&
b0101 (
#710
0&
#715
1&
b0110 (
#720
0&
#725
b00 %
1&
b0111 (
#730
0&
#735
b100 #
b00 $
1&
b1000 (
#740
0&
#745
1&
b1001 (
#750
0&
#755
1&
b1010 (
#760
0&
#765
1&
b1011 (
#770
0&
#775
1&
b1100 (
#780
0&
#785
1&
b1101 (
#790
0&
#795
1&
b1110 (
#800
0&
#805
b10 %
1&
b1111 (
#810
0&
#815
b001 #
b10 $
1&
b0000 (
#820
0&
#825
1&
b0001 (
#830
0&
#835
1&
b0010 (
#840
0&
#845
1&
b0011 (
#850
0&
#855
1&
b0100 (
#860
0&
#865
1&
b0101 (
#870
0&
#875
1&
b0110 (
#880
0&
#885
1&
b0111 (
#890
0&
#895
1&
b1000 (
#900
0&
#905
1&
b1001 (
#910
0&
#915
1&
b1010 (
#920
0&
#925
1&
b1011 (
#930
0&
#935
1&
b1100 (
#940
0&
#945
1&
b1101 (
#950
0&
#955
1&
b1110 (
#960
0&
#965
b01 %
1&
b1111 (
#970
0&
#975
b010 #
b01 $
1&
b0000 (
#980
0&
#985
1&
b0001 (
#990
0&
#995
1&
b0010 (
#1000
0&
#1005
1&
b0011 (
#1010
0&
#1015
1&
b0100 (
#1020
0&
#1025
1&
b0101 (
#1030
0&
#1035
1&
b0110 (
#1040
0&
#1045
b00 %
1&
b0111 (
#1050
0&
#1055
b100 #
b00 $
1&
b1000 (
#1060
0&
#1065
1&
b1001 (
#1070
0&
#1075
1&
b1010 (
#1080
0&
#1085
1&
b1011 (
#1090
0&
#1095
1&
b1100 (
#1100
0&
#1105
1&
b1101 (
#1110
0&
#1115
1&
b1110 (
#1120
0&
#1125
b10 %
1&
b1111 (
#1130
0&
#1135
b001 #
b10 $
1&
b0000 (
#1140
0&
#1145
1&
b0001 (
#1150
0&
#1155
1&
b0010 (
#1160
0&
#1165
1&
b0011 (
#1170
0&
#1175
1&
b0100 (
#1180
0&
#1185
1&
b0101 (
#1190
0&
#1195
1&
b0110 (
#1200
0&
#1205
1&
b0111 (
#1210
0&
#1215
1&
b1000 (
#1220
0&
#1225
1&
b1001 (
#1230
0&
#1235
1&
b1010 (
#1240
0&
#1245
1&
b1011 (
#1250
0&
#1255
1&
b1100 (
#1260
0&
#1265
1&
b1101 (
#1270
0&
#1275
1&
b1110 (
#1280
0&
#1285
b01 %
1&
b1111 (
#1290
0&
#1295
b010 #
b01 $
1&
b0000 (
#1300
0&
#1305
1&
b0001 (
#1310
0&
#1315
1&
b0010 (
#1320
0&
#1325
1&
b0011 (
#1330
0&
#1335
1&
b0100 (
#1340
0&
#1345
1&
b0101 (
#1350
0&
#1355
1&
b0110 (
#1360
0&
#1365
b00 %
1&
b0111 (
#1370
0&
#1375
b100 #
b00 $
1&
b1000 (
#1380
0&
#1385
1&
b1001 (
#1390
0&
#1395
1&
b1010 (
#1400
0&
#1405
1&
b1011 (
#1410
0&
#1415
1&
b1100 (
#1420
0&
#1425
1&
b1101 (
#1430
0&
#1435
1&
b1110 (
#1440
0&
#1445
b10 %
1&
b1111 (
#1450
0&
#1455
b001 #
b10 $
1&
b0000 (
#1460
0&
#1465
1&
b0001 (
#1470
0&
#1475
1&
b0010 (
#1480
0&
#1485
1&
b0011 (
#1490
0&
#1495
1&
b0100 (
#1500
0&
#1505
1&
b0101 (
#1510
0&
#1515
1&
b0110 (
#1520
0&
#1525
1&
b0111 (
#1530
0&
#1535
1&
b1000 (
#1540
0&
#1545
1&
b1001 (
#1550
0&
#1555
1&
b1010 (
#1560
0&
#1565
1&
b1011 (
#1570
0&
#1575
1&
b1100 (
#1580
0&
#1585
1&
b1101 (
#1590
0&
#1595
1&
b1110 (
#1600
0&
#1605
b01 %
1&
b1111 (
#1610
0&
#1615
b010 #
b01 $
1&
b0000 (
#1620
0&
#1625
1&
b0001 (
#1630
0&
#1635
1&
b0010 (
#1640
0&
#1645
1&
b0011 (
#1650
0&
#1655
1&
b0100 (
#1660
0&
#1665
1&
b0101 (
#1670
0&
#1675
1&
b0110 (
#1680
0&
#1685
b00 %
1&
b0111 (
#1690
0&
#1695
b100 #
b00 $
1&
b1000 (
#1700
0&
#1705
1&
b1001 (
#1710
0&
#1715
1&
b1010 (
#1720
0&
#1725
1&
b1011 (
#1730
0&
#1735
1&
b1100 (
#1740
0&
#1745
1&
b1101 (
#1750
0&
#1755
1&
b1110 (
#1760
0&
#1765
b10 %
1&
b1111 (
#1770
0&
#1775
b001 #
b10 $
1&
b0000 (
#1780
0&
#1785
1&
b0001 (
#1790
0&
#1795
1&
b0010 (
#1800
0&
#1805
1&
b0011 (
#1810
0&
#1815
1&
b0100 (
#1820
0&
#1825
1&
b0101 (
#1830
0&
#1835
1&
b0110 (
#1840
0&
#1845
1&
b0111 (
#1850
0&
#1855
1&
b1000 (
#1860
0&
#1865
1&
b1001 (
#1870
0&
#1875
1&
b1010 (
#1880
0&
#1885
1&
b1011 (
#1890
0&
#1895
1&
b1100 (
#1900
0&
#1905
1&
b1101 (
#1910
0&
#1915
1&
b1110 (
#1920
0&
#1925
b01 %
1&
b1111 (
#1930
0&
#1935
b010 #
b01 $
1&
b0000 (
#1940
0&
#1945
1&
b0001 (
#1950
0&
#1955
1&
b0010 (
#1960
0&
#1965
1&
b0011 (
#1970
0&
#1975
1&
b0100 (
#1980
0&
#1985
1&
b0101 (
#1990
0&
#1995
1&
b0110 (
#2000
0&
#2005
b00 %
1&
b0111 (
#2010
0&
#2015
b100 #
b00 $
1&
b1000 (
