notebooks/Chapter_6_examples/example_12__traffic_light_controller/traffic_light_testbench.vcd
$version Generated by VerilatedVcd $end
$timescale 1ps $end
 $scope module $rootio $end
 $upscope $end
 $scope module traffic_light_testbench $end
  $var wire 1 ) clk $end
  $var wire 1 * reset $end
  $var wire 1 # red_light $end
  $var wire 1 $ yellow_light $end
  $var wire 1 % green_light $end
  $scope module TRAFFIC_CONTROLLER $end
   $var wire 1 ) clk $end
   $var wire 1 * reset $end
   $var wire 1 # red_light $end
   $var wire 1 $ yellow_light $end
   $var wire 1 % green_light $end
   $var wire 2 & current_state [1:0] $end
   $var wire 2 ' next_state [1:0] $end
   $var wire 4 ( timer_count [3:0] $end
   $var wire 4 + RED_TIME [3:0] $end
   $var wire 4 , GREEN_TIME [3:0] $end
   $var wire 4 - YELLOW_TIME [3:0] $end
  $upscope $end
 $upscope $end
$enddefinitions $end


#0
1#
0$
0%
b00 &
b00 '
b0000 (
0)
1*
b1000 +
b0110 ,
b0010 -
#5
1)
#10
0)
#15
1)
#20
0)
0*
#25
b0001 (
1)
#30
0)
#35
b0010 (
1)
#40
0)
#45
b0011 (
1)
#50
0)
#55
b0100 (
1)
#60
0)
#65
b0101 (
1)
#70
0)
#75
b0110 (
1)
#80
0)
#85
b01 '
b0111 (
1)
#90
0)
#95
0#
1%
b01 &
b0000 (
1)
#100
0)
#105
b0001 (
1)
#110
0)
#115
b0010 (
1)
#120
0)
#125
b0011 (
1)
#130
0)
#135
b0100 (
1)
#140
0)
#145
b10 '
b0101 (
1)
#150
0)
#155
1$
0%
b10 &
b0000 (
1)
#160
0)
#165
b00 '
b0001 (
1)
#170
0)
#175
1#
0$
b00 &
b0000 (
1)
#180
0)
#185
b0001 (
1)
#190
0)
#195
b0010 (
1)
#200
0)
#205
b0011 (
1)
#210
0)
#215
b0100 (
1)
#220
0)
#225
b0101 (
1)
#230
0)
#235
b0110 (
1)
#240
0)
#245
b01 '
b0111 (
1)
#250
0)
#255
0#
1%
b01 &
b0000 (
1)
#260
0)
#265
b0001 (
1)
#270
0)
#275
b0010 (
1)
#280
0)
#285
b0011 (
1)
#290
0)
#295
b0100 (
1)
#300
0)
#305
b10 '
b0101 (
1)
#310
0)
#315
1$
0%
b10 &
b0000 (
1)
#320
0)
#325
b00 '
b0001 (
1)
#330
0)
#335
1#
0$
b00 &
b0000 (
1)
#340
0)
#345
b0001 (
1)
#350
0)
#355
b0010 (
1)
#360
0)
#365
b0011 (
1)
#370
0)
#375
b0100 (
1)
#380
0)
#385
b0101 (
1)
#390
0)
#395
b0110 (
1)
#400
0)
#405
b01 '
b0111 (
1)
#410
0)
#415
0#
1%
b01 &
b0000 (
1)
#420
0)
#425
b0001 (
1)
#430
0)
#435
b0010 (
1)
#440
0)
#445
b0011 (
1)
#450
0)
#455
b0100 (
1)
#460
0)
#465
b10 '
b0101 (
1)
#470
0)
#475
1$
0%
b10 &
b0000 (
1)
#480
0)
#485
b00 '
b0001 (
1)
#490
0)
#495
1#
0$
b00 &
b0000 (
1)
#500
0)
#505
b0001 (
1)
#510
0)
#515
b0010 (
1)
#520
0)
#525
b0011 (
1)
#530
0)
#535
b0100 (
1)
#540
0)
#545
b0101 (
1)
#550
0)
#555
b0110 (
1)
#560
0)
#565
b01 '
b0111 (
1)
#570
0)
#575
0#
1%
b01 &
b0000 (
1)
#580
0)
#585
b0001 (
1)
#590
0)
#595
b0010 (
1)
#600
0)
#605
b0011 (
1)
#610
0)
#615
b0100 (
1)
#620
0)
#625
b10 '
b0101 (
1)
#630
0)
#635
1$
0%
b10 &
b0000 (
1)
#640
0)
#645
b00 '
b0001 (
1)
#650
0)
#655
1#
0$
b00 &
b0000 (
1)
#660
0)
#665
b0001 (
1)
#670
0)
#675
b0010 (
1)
#680
0)
#685
b0011 (
1)
#690
0)
#695
b0100 (
1)
#700
0)
#705
b0101 (
1)
#710
0)
#715
b0110 (
1)
#720
0)
#725
b01 '
b0111 (
1)
#730
0)
#735
0#
1%
b01 &
b0000 (
1)
#740
0)
#745
b0001 (
1)
#750
0)
#755
b0010 (
1)
#760
0)
#765
b0011 (
1)
#770
0)
#775
b0100 (
1)
#780
0)
#785
b10 '
b0101 (
1)
#790
0)
#795
1$
0%
b10 &
b0000 (
1)
#800
0)
#805
b00 '
b0001 (
1)
#810
0)
#815
1#
0$
b00 &
b0000 (
1)
#820
0)
#825
b0001 (
1)
#830
0)
#835
b0010 (
1)
#840
0)
#845
b0011 (
1)
#850
0)
#855
b0100 (
1)
#860
0)
#865
b0101 (
1)
#870
0)
#875
b0110 (
1)
#880
0)
#885
b01 '
b0111 (
1)
#890
0)
#895
0#
1%
b01 &
b0000 (
1)
#900
0)
#905
b0001 (
1)
#910
0)
#915
b0010 (
1)
#920
0)
#925
b0011 (
1)
#930
0)
#935
b0100 (
1)
#940
0)
#945
b10 '
b0101 (
1)
#950
0)
#955
1$
0%
b10 &
b0000 (
1)
#960
0)
#965
b00 '
b0001 (
1)
#970
0)
#975
1#
0$
b00 &
b0000 (
1)
#980
0)
#985
b0001 (
1)
#990
0)
#995
b0010 (
1)
#1000
0)
#1005
b0011 (
1)
#1010
0)
#1015
b0100 (
1)
#1020
0)
#1025
b0101 (
1)
#1030
0)
#1035
b0110 (
1)
#1040
0)
#1045
b01 '
b0111 (
1)
#1050
0)
#1055
0#
1%
b01 &
b0000 (
1)
#1060
0)
#1065
b0001 (
1)
#1070
0)
#1075
b0010 (
1)
#1080
0)
#1085
b0011 (
1)
#1090
0)
#1095
b0100 (
1)
#1100
0)
#1105
b10 '
b0101 (
1)
#1110
0)
#1115
1$
0%
b10 &
b0000 (
1)
#1120
0)
#1125
b00 '
b0001 (
1)
#1130
0)
#1135
1#
0$
b00 &
b0000 (
1)
#1140
0)
#1145
b0001 (
1)
#1150
0)
#1155
b0010 (
1)
#1160
0)
#1165
b0011 (
1)
#1170
0)
#1175
b0100 (
1)
#1180
0)
#1185
b0101 (
1)
#1190
0)
#1195
b0110 (
1)
#1200
0)
#1205
b01 '
b0111 (
1)
#1210
0)
#1215
0#
1%
b01 &
b0000 (
1)
#1220
0)
#1225
b0001 (
1)
#1230
0)
#1235
b0010 (
1)
#1240
0)
#1245
b0011 (
1)
#1250
0)
#1255
b0100 (
1)
#1260
0)
#1265
b10 '
b0101 (
1)
#1270
0)
#1275
1$
0%
b10 &
b0000 (
1)
#1280
0)
#1285
b00 '
b0001 (
1)
#1290
0)
#1295
1#
0$
b00 &
b0000 (
1)
#1300
0)
#1305
b0001 (
1)
#1310
0)
#1315
b0010 (
1)
#1320
0)
#1325
b0011 (
1)
#1330
0)
#1335
b0100 (
1)
#1340
0)
#1345
b0101 (
1)
#1350
0)
#1355
b0110 (
1)
#1360
0)
#1365
b01 '
b0111 (
1)
#1370
0)
#1375
0#
1%
b01 &
b0000 (
1)
#1380
0)
#1385
b0001 (
1)
#1390
0)
#1395
b0010 (
1)
#1400
0)
#1405
b0011 (
1)
#1410
0)
#1415
b0100 (
1)
#1420
0)
#1425
b10 '
b0101 (
1)
#1430
0)
#1435
1$
0%
b10 &
b0000 (
1)
#1440
0)
#1445
b00 '
b0001 (
1)
#1450
0)
#1455
1#
0$
b00 &
b0000 (
1)
#1460
0)
#1465
b0001 (
1)
#1470
0)
#1475
b0010 (
1)
#1480
0)
#1485
b0011 (
1)
#1490
0)
#1495
b0100 (
1)
#1500
0)
#1505
b0101 (
1)
#1510
0)
#1515
b0110 (
1)
#1520
0)
#1525
b01 '
b0111 (
1)
#1530
0)
#1535
0#
1%
b01 &
b0000 (
1)
#1540
0)
#1545
b0001 (
1)
#1550
0)
#1555
b0010 (
1)
#1560
0)
#1565
b0011 (
1)
#1570
0)
#1575
b0100 (
1)
#1580
0)
#1585
b10 '
b0101 (
1)
#1590
0)
#1595
1$
0%
b10 &
b0000 (
1)
#1600
0)
#1605
b00 '
b0001 (
1)
#1610
0)
#1615
1#
0$
b00 &
b0000 (
1)
#1620
0)
#1625
b0001 (
1)
#1630
0)
#1635
b0010 (
1)
#1640
0)
#1645
b0011 (
1)
#1650
0)
#1655
b0100 (
1)
#1660
0)
#1665
b0101 (
1)
#1670
0)
#1675
b0110 (
1)
#1680
0)
#1685
b01 '
b0111 (
1)
#1690
0)
#1695
0#
1%
b01 &
b0000 (
1)
#1700
0)
#1705
b0001 (
1)
#1710
0)
#1715
b0010 (
1)
#1720
0)
#1725
b0011 (
1)
#1730
0)
#1735
b0100 (
1)
#1740
0)
#1745
b10 '
b0101 (
1)
#1750
0)
#1755
1$
0%
b10 &
b0000 (
1)
#1760
0)
#1765
b00 '
b0001 (
1)
#1770
0)
#1775
1#
0$
b00 &
b0000 (
1)
#1780
0)
#1785
b0001 (
1)
#1790
0)
#1795
b0010 (
1)
#1800
0)
#1805
b0011 (
1)
#1810
0)
#1815
b0100 (
1)
#1820
0)
#1825
b0101 (
1)
#1830
0)
#1835
b0110 (
1)
#1840
0)
#1845
b01 '
b0111 (
1)
#1850
0)
#1855
0#
1%
b01 &
b0000 (
1)
#1860
0)
#1865
b0001 (
1)
#1870
0)
#1875
b0010 (
1)
#1880
0)
#1885
b0011 (
1)
#1890
0)
#1895
b0100 (
1)
#1900
0)
#1905
b10 '
b0101 (
1)
#1910
0)
#1915
1$
0%
b10 &
b0000 (
1)
#1920
0)
#1925
b00 '
b0001 (
1)
#1930
0)
#1935
1#
0$
b00 &
b0000 (
1)
#1940
0)
#1945
b0001 (
1)
#1950
0)
#1955
b0010 (
1)
#1960
0)
#1965
b0011 (
1)
#1970
0)
#1975
b0100 (
1)
#1980
0)
#1985
b0101 (
1)
#1990
0)
#1995
b0110 (
1)
